H,R,Tcell,Tambiante
0,54.23790031075051,38.58557445244719,276.33
1,54.25249736838624,38.37823981202837,275.96999999999997
2,54.21320848087727,38.93441576956957,276.84
3,54.201059448123004,39.10711237384453,277.08
